{
  "trials": [
    {"trial": {
      "logo": "logo",
      "title": "title",
      "copy": "copy"
    }}
  ]
}

{
  "researchers": [

    {
      "researcher": {
        "name": "name",
        "profileImg": "guthy-jackson-foundation-funded-researchers-alan-verkman-md-phd.jpg",
        "instImg": "guthy-jackson-funded-research-insitutions-university-of-california-san-francisco.jpg",
        "researchTopics": [

          {
            "researchTopic": {
              "researchTitle": "research title",
              "researchType": "research type",
              "researchStatus": "research status",
              "researchTimeline": "research timeline",
              "topicResearchers": [

                {
                  "topicResearcher": {
                    "name": "researcher nameeee",
                    "institution": "researcher institution"
                  }
                }

              ]
            }
          }

        ]
      }
    }

  ]
}