{
  "videos": [

    {
      "video": {
        "title": "2010 NMO Patient Day Opening Speech",
        "url": "https://www.youtube.com/embed/xPc0wUQ_djI"
      }
    },
    {
      "video": {
        "title": "2010 - NMO Patient Day - The GJCF Clinical Consortium",
        "url": "https://www.youtube.com/embed/tjrRk40Vf0o"
      }
    },
    {
      "video": {
        "title": "2010 NMO Patient Day - The Guthy-Jackson Charitable Foundation Repository for NMO",
        "url": "https://www.youtube.com/embed/HrCWzLaNQng"
      }
    },
    {
      "video": {
        "title": "2010 NMO Patient Day - Q&A Panel Introduction & Discussion Part 1",
        "url": "https://www.youtube.com/embed/Z7pXNfxXzhk"
      }
    },
    {
      "video": {
        "title": "2010 NMO Patient Day - Q&A Panel Introduction & Discussion Part 2",
        "url": "https://www.youtube.com/embed/-kwOFYJVpxM"
      }
    },
    {
      "video": {
        "title": "2010 NMO Patient Day - Stem Cell Transplants and NMO",
        "url": "https://www.youtube.com/embed/Qnveu9pLgv0"
      }
    },
    {
      "video": {
        "title": "2010 NMO Patient Day - Mindsight, Mindfulness, and Resilience",
        "url": "https://www.youtube.com/embed/nxUgIxiAlJk"
      }
    },
    {
      "video": {
        "title": "2010 NMO Patient Day - Living With NMO",
        "url": "https://www.youtube.com/embed/gSsZXpRkNZI"
      }
    },
    {
      "video": {
        "title": "2010 NMO Patient Day - Reaching Out and Coming Together",
        "url": "https://www.youtube.com/embed/v8vn0hb8MdI"
      }
    },
    {
      "video": {
        "title": "2010 NMO Patient Day - Spectrum: A GJCF Online NMO Community",
        "url": "https://www.youtube.com/embed/GQ2GxtadcKU"
      }
    },
    {
      "video": {
        "title": "2010 NMO Patient Day - Closing Comments",
        "url": "https://www.youtube.com/embed/Ace3_jx9RbM"
      }
    }

  ]
}